Disaster Relief Project: Part 2
…
# Calculating MSE to find which K neighbor gives us the least amount of MSE.
CV = (MSE %*% n.val)/n 
SE = apply(MSE, 1, sd)/sqrt(n.folds)
results.knn = tibble(k = K, MSE = CV[,1], SE)
results.knn

#> # A tibble: 50 x 3
#>        k     MSE       SE
#>    <int>   <dbl>    <dbl>
#>  1     1 0.00251 0.000271
#>  2     2 0.00193 0.000192
#>  3     3 0.00182 0.000162
#>  4     4 0.00181 0.000166
#>  5     5 0.00173 0.000157
#>  6     6 0.00172 0.000153
#>  7     7 0.00172 0.000155
#>  8     8 0.00171 0.000152
#>  9     9 0.00169 0.000155
#> 10    10 0.00165 0.000146
#> # ... with 40 more rows
…
RMSE.mu %>% arrange(RMSE) 

#> # A tibble: 21 x 3
#>    alpha  RMSE RMSE.median
#>    <dbl> <dbl>       <dbl>
#>  1  0.65 0.135       0.135
#>  2  0.4  0.135       0.135
#>  3  0.6  0.135       0.135
#>  4  0.15 0.135       0.135
#>  5  0.5  0.135       0.135
#>  6  0.3  0.135       0.135
#>  7  0.25 0.135       0.135
#>  8  0.85 0.135       0.135
#>  9  0.35 0.135       0.135
#> 10  0.45 0.135       0.135
#> # ... with 11 more rows
…
